{
  "project_info": {
    "project_number": "1032300572802",
    "firebase_url": "https://my-game-22431.firebaseio.com",
    "project_id": "my-game-22431",
    "storage_bucket": "my-game-22431.appspot.com"
  },
  "client": [
    {
      "client_info": {
        "mobilesdk_app_id": "1:1032300572802:android:37387ecdab76f20c8ac49b",
        "android_client_info": {
          "package_name": "com.lydor.mygame"
        }
      },
      "oauth_client": [
        {
          "client_id": "1032300572802-1tuictvlp0rsqe3826p8rdmp398ncdkb.apps.googleusercontent.com",
          "client_type": 1,
          "android_info": {
            "package_name": "com.lydor.mygame",
            "certificate_hash": "a80e8febbc324f8922644a4b9a1d4ab8d65cae93"
          }
        },
        {
          "client_id": "1032300572802-3g3n7vmvcpf9etgvc0l0mq2p4u7t5fkm.apps.googleusercontent.com",
          "client_type": 3
        }
      ],
      "api_key": [
        {
          "current_key": "AIzaSyBwPMgKtwn8mzVd_lK9c_YYTsvDSMAoo-M"
        }
      ],
      "services": {
        "appinvite_service": {
          "other_platform_oauth_client": [
            {
              "client_id": "1032300572802-3g3n7vmvcpf9etgvc0l0mq2p4u7t5fkm.apps.googleusercontent.com",
              "client_type": 3
            }
          ]
        }
      }
    }
  ],
  "configuration_version": "1"
}